<svg width="36" height="36" viewBox="0 0 36 36" fill="none" xmlns="http://www.w3.org/2000/svg">
<rect width="36" height="36" rx="4" fill="white"/>
<path d="M21.3856 11.3783H23.5297V8H20.3374C19.0509 8.04826 17.8598 8.6274 17.0499 9.64089C17.0499 9.64089 16.1922 10.4613 16.1446 12.8744V15.384H13V18.9554H16.1446V28.2216H19.7656V18.9554H22.8626L23.2914 15.384H19.718V12.8744C19.718 12.054 20.3374 11.3783 21.1474 11.3783C21.2903 11.3783 21.338 11.3783 21.3856 11.3783Z" fill="#2C2C46"/>
</svg>
