<svg width="225" height="226" viewBox="0 0 225 226" fill="none" xmlns="http://www.w3.org/2000/svg">
<path d="M9.62309 0C4.31268 0 0 4.31268 0 9.62309C0 14.9335 4.31268 19.2462 9.62309 19.2462C14.9335 19.2462 19.2462 14.9335 19.2462 9.62309C19.2462 4.31268 14.9335 0 9.62309 0Z" fill="#F1C62D" fill-opacity="0.15"/>
<path d="M61.0699 0C55.7595 0 51.4468 4.31268 51.4468 9.62309C51.4468 14.9335 55.7595 19.2462 61.0699 19.2462C66.3803 19.2462 70.693 14.9335 70.693 9.62309C70.693 4.31268 66.3803 0 61.0699 0Z" fill="#F1C62D" fill-opacity="0.15"/>
<path d="M112.501 0C107.19 0 102.877 4.31268 102.877 9.62309C102.877 14.9335 107.19 19.2462 112.501 19.2462C117.811 19.2462 122.124 14.9335 122.124 9.62309C122.124 4.31268 117.827 0 112.501 0Z" fill="#F1C62D" fill-opacity="0.15"/>
<path d="M163.947 0C158.636 0 154.324 4.31268 154.324 9.62309C154.324 14.9335 158.636 19.2462 163.947 19.2462C169.257 19.2462 173.57 14.9335 173.57 9.62309C173.57 4.31268 169.257 0 163.947 0Z" fill="#F1C62D" fill-opacity="0.15"/>
<path d="M215.377 19.2623C220.687 19.2623 225 14.9496 225 9.63923C225 4.32882 220.687 0.0161133 215.377 0.0161133C210.067 0.0161133 205.754 4.32882 205.754 9.63923C205.754 14.9496 210.067 19.2623 215.377 19.2623Z" fill="#F1C62D" fill-opacity="0.15"/>
<path d="M9.62309 51.4465C4.31268 51.4465 0 55.7592 0 61.0696C0 66.38 4.31268 70.6927 9.62309 70.6927C14.9335 70.6927 19.2462 66.38 19.2462 61.0696C19.2462 55.7592 14.9335 51.4465 9.62309 51.4465Z" fill="#F1C62D" fill-opacity="0.15"/>
<path d="M61.0699 51.4465C55.7595 51.4465 51.4468 55.7592 51.4468 61.0696C51.4468 66.38 55.7595 70.6927 61.0699 70.6927C66.3803 70.6927 70.693 66.38 70.693 61.0696C70.693 55.7592 66.3803 51.4465 61.0699 51.4465Z" fill="#F1C62D" fill-opacity="0.15"/>
<path d="M112.501 51.4465C107.19 51.4465 102.877 55.7592 102.877 61.0696C102.877 66.38 107.19 70.6927 112.501 70.6927C117.811 70.6927 122.124 66.38 122.124 61.0696C122.124 55.7592 117.827 51.4465 112.501 51.4465Z" fill="#F1C62D" fill-opacity="0.15"/>
<path d="M163.947 51.4465C158.636 51.4465 154.324 55.7592 154.324 61.0696C154.324 66.38 158.636 70.6927 163.947 70.6927C169.257 70.6927 173.57 66.38 173.57 61.0696C173.57 55.7592 169.257 51.4465 163.947 51.4465Z" fill="#F1C62D" fill-opacity="0.15"/>
<path d="M215.377 51.4465C210.067 51.4465 205.754 55.7592 205.754 61.0696C205.754 66.38 210.067 70.6927 215.377 70.6927C220.687 70.6927 225 66.38 225 61.0696C225.016 55.7592 220.703 51.4465 215.377 51.4465Z" fill="#F1C62D" fill-opacity="0.15"/>
<path d="M9.62309 102.893C4.31268 102.893 0 107.206 0 112.516C0 117.827 4.31268 122.139 9.62309 122.139C14.9335 122.139 19.2462 117.827 19.2462 112.516C19.2462 107.206 14.9335 102.893 9.62309 102.893Z" fill="#F1C62D" fill-opacity="0.15"/>
<path d="M61.0699 102.893C55.7595 102.893 51.4468 107.206 51.4468 112.516C51.4468 117.827 55.7595 122.139 61.0699 122.139C66.3803 122.139 70.693 117.827 70.693 112.516C70.693 107.206 66.3803 102.893 61.0699 102.893Z" fill="#F1C62D" fill-opacity="0.15"/>
<path d="M112.501 102.893C107.19 102.893 102.877 107.206 102.877 112.516C102.877 117.827 107.19 122.139 112.501 122.139C117.811 122.139 122.124 117.827 122.124 112.516C122.124 107.206 117.827 102.893 112.501 102.893Z" fill="#F1C62D" fill-opacity="0.15"/>
<path d="M163.947 102.893C158.636 102.893 154.324 107.206 154.324 112.516C154.324 117.827 158.636 122.139 163.947 122.139C169.257 122.139 173.57 117.827 173.57 112.516C173.57 107.206 169.257 102.893 163.947 102.893Z" fill="#F1C62D" fill-opacity="0.15"/>
<path d="M215.377 102.893C210.067 102.893 205.754 107.206 205.754 112.516C205.754 117.827 210.067 122.139 215.377 122.139C220.687 122.139 225 117.827 225 112.516C225.016 107.206 220.703 102.893 215.377 102.893Z" fill="#F1C62D" fill-opacity="0.15"/>
<path d="M9.62309 154.324C4.31268 154.324 0 158.636 0 163.947C0 169.257 4.31268 173.57 9.62309 173.57C14.9335 173.57 19.2462 169.257 19.2462 163.947C19.2462 158.636 14.9335 154.324 9.62309 154.324Z" fill="#F1C62D" fill-opacity="0.15"/>
<path d="M61.0699 154.324C55.7595 154.324 51.4468 158.636 51.4468 163.947C51.4468 169.257 55.7595 173.57 61.0699 173.57C66.3803 173.57 70.693 169.257 70.693 163.947C70.693 158.636 66.3803 154.324 61.0699 154.324Z" fill="#F1C62D" fill-opacity="0.15"/>
<path d="M112.501 154.324C107.19 154.324 102.877 158.636 102.877 163.947C102.877 169.257 107.19 173.57 112.501 173.57C117.811 173.57 122.124 169.257 122.124 163.947C122.124 158.636 117.827 154.324 112.501 154.324Z" fill="#F1C62D" fill-opacity="0.15"/>
<path d="M163.947 154.324C158.636 154.324 154.324 158.636 154.324 163.947C154.324 169.257 158.636 173.57 163.947 173.57C169.257 173.57 173.57 169.257 173.57 163.947C173.57 158.636 169.257 154.324 163.947 154.324Z" fill="#F1C62D" fill-opacity="0.15"/>
<path d="M215.377 154.324C210.067 154.324 205.754 158.636 205.754 163.947C205.754 169.257 210.067 173.57 215.377 173.57C220.687 173.57 225 169.257 225 163.947C225.016 158.636 220.703 154.324 215.377 154.324Z" fill="#F1C62D" fill-opacity="0.15"/>
<path d="M9.62309 205.77C4.31268 205.77 0 210.083 0 215.393C0 220.704 4.31268 225.016 9.62309 225.016C14.9335 225.016 19.2462 220.704 19.2462 215.393C19.2462 210.083 14.9335 205.77 9.62309 205.77Z" fill="#F1C62D" fill-opacity="0.15"/>
<path d="M61.0699 205.77C55.7595 205.77 51.4468 210.083 51.4468 215.393C51.4468 220.704 55.7595 225.016 61.0699 225.016C66.3803 225.016 70.693 220.704 70.693 215.393C70.693 210.083 66.3803 205.77 61.0699 205.77Z" fill="#F1C62D" fill-opacity="0.15"/>
<path d="M112.501 205.77C107.19 205.77 102.877 210.083 102.877 215.393C102.877 220.704 107.19 225.016 112.501 225.016C117.811 225.016 122.124 220.704 122.124 215.393C122.124 210.083 117.827 205.77 112.501 205.77Z" fill="#F1C62D" fill-opacity="0.15"/>
<path d="M163.947 205.77C158.636 205.77 154.324 210.083 154.324 215.393C154.324 220.704 158.636 225.016 163.947 225.016C169.257 225.016 173.57 220.704 173.57 215.393C173.57 210.083 169.257 205.77 163.947 205.77Z" fill="#F1C62D" fill-opacity="0.15"/>
<path d="M215.377 205.77C210.067 205.77 205.754 210.083 205.754 215.393C205.754 220.704 210.067 225.016 215.377 225.016C220.687 225.016 225 220.704 225 215.393C225.016 210.083 220.703 205.77 215.377 205.77Z" fill="#F1C62D" fill-opacity="0.15"/>
</svg>
