<svg width="668" height="860" viewBox="0 0 668 860" fill="none" xmlns="http://www.w3.org/2000/svg">
<mask id="mask0" mask-type="alpha" maskUnits="userSpaceOnUse" x="0" y="0" width="668" height="860">
<rect width="668" height="859.545" fill="#FFFAF4"/>
<rect x="0.25" y="0.25" width="667.5" height="859.045" stroke="#848E9C" stroke-opacity="0.4" stroke-width="0.5"/>
</mask>
<g mask="url(#mask0)">
<path d="M5.77539 485.118C99.7831 602.708 330.15 840.583 499.556 851.363" stroke="#848E9C" stroke-opacity="0.4" stroke-width="0.5"/>
<path d="M-7.7002 499.075C86.3075 616.665 316.674 854.539 486.081 865.32" stroke="#848E9C" stroke-opacity="0.4" stroke-width="0.5"/>
<path d="M-21.1758 514.476C72.8319 632.065 303.199 869.94 472.605 880.721" stroke="#848E9C" stroke-opacity="0.4" stroke-width="0.5"/>
<path d="M-33.689 529.876C60.3187 647.466 290.686 885.341 460.092 896.121" stroke="#848E9C" stroke-opacity="0.4" stroke-width="0.5"/>
<path d="M-49.0894 543.352C44.9183 660.941 275.285 898.816 444.692 909.597" stroke="#848E9C" stroke-opacity="0.4" stroke-width="0.5"/>
<path d="M-61.6025 559.715C32.4051 677.305 262.772 915.179 432.178 925.96" stroke="#848E9C" stroke-opacity="0.4" stroke-width="0.5"/>
<path d="M-70.2651 576.078C23.7425 693.668 254.109 931.542 423.516 942.323" stroke="#848E9C" stroke-opacity="0.4" stroke-width="0.5"/>
<path d="M-77.9653 595.328C16.0423 712.918 246.409 950.793 415.816 961.573" stroke="#848E9C" stroke-opacity="0.4" stroke-width="0.5"/>
<path d="M-85.6655 616.504C8.34215 734.094 238.709 971.969 408.115 982.749" stroke="#848E9C" stroke-opacity="0.4" stroke-width="0.5"/>
<path d="M3.8501 848.957C93.0451 817.674 302.525 735.666 426.885 657.893C582.334 560.677 645.862 581.372 669.925 631.905V848.957" stroke="#848E9C" stroke-opacity="0.4" stroke-width="0.5"/>
<path d="M3.8501 865.398C93.0451 834.116 302.525 752.107 426.885 674.335C582.334 577.118 645.862 597.813 669.925 648.346V865.398" stroke="#848E9C" stroke-opacity="0.4" stroke-width="0.5"/>
<path d="M4.8125 880.798C94.0075 849.516 303.487 767.508 427.847 689.735C583.297 592.519 646.824 613.213 670.887 663.747V880.798" stroke="#848E9C" stroke-opacity="0.4" stroke-width="0.5"/>
<path d="M3.8501 896.199C93.0451 864.917 302.525 782.908 426.885 705.136C582.334 607.919 645.862 628.614 669.925 679.147V896.199" stroke="#848E9C" stroke-opacity="0.4" stroke-width="0.5"/>
<path d="M3.8501 909.675C93.0451 878.392 302.525 796.384 426.885 718.611C582.334 621.395 645.862 642.09 669.925 692.623V909.675" stroke="#848E9C" stroke-opacity="0.4" stroke-width="0.5"/>
<path d="M3.8501 926.038C93.0451 894.755 302.525 812.747 426.885 734.974C582.334 637.758 645.862 658.453 669.925 708.986V926.038" stroke="#848E9C" stroke-opacity="0.4" stroke-width="0.5"/>
<path d="M3.8501 935.663C93.0451 904.381 302.525 822.372 426.885 744.6C582.334 647.383 645.862 668.078 669.925 718.611V935.663" stroke="#848E9C" stroke-opacity="0.4" stroke-width="0.5"/>
<path d="M3.8501 948.176C93.0451 916.894 302.525 834.886 426.885 757.113C582.334 659.897 645.862 680.591 669.925 731.124V948.176" stroke="#848E9C" stroke-opacity="0.4" stroke-width="0.5"/>
<path d="M2.8877 956.839C92.0827 925.556 301.563 843.548 425.922 765.775C581.372 668.559 644.899 689.254 668.963 739.787V956.839" stroke="#848E9C" stroke-opacity="0.4" stroke-width="0.5"/>
<path d="M2.8877 972.239C92.0827 940.957 301.563 858.949 425.922 781.176C581.372 683.96 644.899 704.654 668.963 755.187V972.239" stroke="#848E9C" stroke-opacity="0.4" stroke-width="0.5"/>
<path d="M2.8877 985.715C92.0827 954.432 301.563 872.424 425.922 794.651C581.372 697.435 644.899 718.13 668.963 768.663V985.715" stroke="#848E9C" stroke-opacity="0.4" stroke-width="0.5"/>
<path d="M2.8877 1002.08C92.0827 970.795 301.563 888.787 425.922 811.014C581.372 713.798 644.899 734.493 668.963 785.026V1002.08" stroke="#848E9C" stroke-opacity="0.4" stroke-width="0.5"/>
<path d="M506.294 614.098C555.383 638.322 645.765 726.137 614.579 883.608" stroke="#848E9C" stroke-opacity="0.4" stroke-width="0.5"/>
<path d="M518.807 609.285C567.896 633.509 658.278 721.324 627.092 878.795" stroke="#848E9C" stroke-opacity="0.4" stroke-width="0.5"/>
<path d="M539.02 601.585C588.109 625.809 678.491 713.624 647.305 871.095" stroke="#848E9C" stroke-opacity="0.4" stroke-width="0.5"/>
<path d="M546.72 598.697C595.81 622.921 686.192 710.737 655.006 868.207" stroke="#848E9C" stroke-opacity="0.4" stroke-width="0.5"/>
<path d="M553.458 596.772C602.547 620.996 692.929 708.812 661.743 866.282" stroke="#848E9C" stroke-opacity="0.4" stroke-width="0.5"/>
<path d="M565.009 593.885C614.098 618.109 704.48 705.924 673.294 863.395" stroke="#848E9C" stroke-opacity="0.4" stroke-width="0.5"/>
<path d="M574.634 591.96C623.723 616.184 714.105 703.999 682.919 861.47" stroke="#848E9C" stroke-opacity="0.4" stroke-width="0.5"/>
<path d="M586.185 590.035C635.274 614.258 725.656 702.074 694.47 859.545" stroke="#848E9C" stroke-opacity="0.4" stroke-width="0.5"/>
<path d="M528.432 605.435C577.521 629.659 667.904 717.474 636.717 874.945" stroke="#848E9C" stroke-opacity="0.4" stroke-width="0.5"/>
</g>
</svg>
